<!DOCTYPE html>
<!--
To change this license header, choose License Headers in Project Properties.
To change this template file, choose Tools | Templates
and open the template in the editor.
-->
<html>
    <head>
        <title>TODO supply a title</title>
        <meta charset="UTF-8">
        <meta name="viewport" content="width=device-width, initial-scale=1.0">
    </head>
    <body>
        <div>
            <form action="pollymorphism" method="post">
               <div> <input type="email" name="email" placeholder="Email"/></div>
            
            <div><input type ="password" name ="password" placeholder="Password"/>
           
           <input name="fullname" type="text" placeholder="Full Name"/>
           <input type="tel" placeholder="Phone Number" name="phone_number"/>
           <input type="number" placeholder="ID" name="id"/>
           <input type="radio" name="gender">Male
          <input type="radio" name="gender">Female
          <input type ="checkbox" name="graduate"> Graduate
           <input type ="checkbox" name="intermediat"> Intermediat
           <input type ="checkbox" name="matric"> Matric
           <input type ="checkbox" name="middle"> Middle
           <input type ="date" name ="date">
           <textarea rows="10" name="text_area" cols="30">
About Your Self.
</textarea>
<select>
  <option value="volvo">Pakistan</option>
  <option value="saab">India</option>
  <option value="opel">Sri Lanka</option>
  <option value="audi">Bangladesh</option>
</select>

           
           <button type="submit">Submit </button>
                
                
            </form>
            
        </div>
    </body>
</html>
